…
\#Promedio de ventas por sucursal

``` r
datos %>% group_by(nombre_tienda) %>% 
  summarise(promedio_ventas=mean(ventas)) %>% 
  arrange(-promedio_ventas)
```

    ## # A tibble: 188 × 2
    ##    nombre_tienda                      promedio_ventas
    ##    <chr>                                        <dbl>
    ##  1 SAM'S CLUB 6514 / WATERLOO                    516.
    ##  2 SAM'S CLUB 8238 / DAVENPORT                   486.
    ##  3 SAM'S CLUB 8162 / CEDAR RAPIDS                468.
    ##  4 ARTISAN GRAIN DISTILLERY                      419.
    ##  5 HILLTOP GROCERY                               302.
    ##  6 SAM'S FOOD                                    209.
    ##  7 SYCAMORE CONVENIENCE                          187.
    ##  8 FAREWAY STORES #151 / CEDAR RAPIDS            186.
    ##  9 EZ STOP / DAVENPORT                           178.
    ## 10 LOGAN CONVENIENCE STORE                       175.
    ## # ℹ 178 more rows
…
    ## `summarise()` has grouped output by 'ciudad'. You can override using the
    ## `.groups` argument.

    ## # A tibble: 25 × 4
    ##    n_tile `empresas_CEDAR RAPIDS` empresas_DAVENPORT empresas_WATERLOO
    ##     <int>                   <dbl>              <dbl>             <dbl>
    ##  1      1                    6.51               7.06              7.13
    ##  2      2                    8.76               9.36             10.2 
    ##  3      3                   10.4               10.7              11.8 
    ##  4      4                   11.8               12.4              13.2 
    ##  5      5                   13.5               14.2              16.0 
    ##  6      6                   17.1               17.5              19.7 
    ##  7      7                   20.1               20.7              22.3 
    ##  8      8                   22.2               24.0              24.8 
    ##  9      9                   24.8               27.3              27.3 
    ## 10     10                   27.6               32.0              30.7 
    ## # ℹ 15 more rows
